<?xml version="1.0" encoding="UTF-8"?>
<svg width="248px" height="266px" viewBox="0 0 248 266" version="1.1" xmlns="http://www.w3.org/2000/svg" xmlns:xlink="http://www.w3.org/1999/xlink">
    <!-- Generator: Sketch 40.3 (33839) - http://www.bohemiancoding.com/sketch -->
    <title>Book</title>
    <desc>Created with Sketch.</desc>
    <defs></defs>
    <g id="Page-1" stroke="none" stroke-width="1" fill="none" fill-rule="evenodd">
        <g id="Artboard" transform="translate(-287.000000, -177.000000)">
            <g id="Book" transform="translate(287.000000, 177.000000)">
                <polygon id="Path" fill="#FFA200" points="64.578125 0.3125 0.45703125 206.261719 187.046875 242.855469 237.351562 21.3476562"></polygon>
                <path d="M73.5175781,24.8535156 L67,74.9335938 L96.7773438,76.296875 L104.385742,56.7216797 L116.09668,56.7216797 L119.837891,75.3457031 L132.785156,75.5175781 L118.982422,23.0976562 L102.341797,23 L90.1015625,62.9472656 L78.5664062,61.6738281 L85.1640625,23.8652344 L73.5175781,24.8535156 Z M110.225586,35.4404297 L106.183594,48.5449219 L114.267578,48.6269531 L110.225586,35.4404297 Z" id="Combined-Shape" fill="#FFFFFF"></path>
                <path d="M150.768383,37.942635 L144.542798,90.4142589 L175.611154,91.8339088 L181.425727,72.6246155 L193.870941,72.8452365 L199.662413,91.7882889 L210.327954,90.9982433 L193.859637,37.1328046 L181.718343,37.3645779 L167.57296,79.8212629 L156.41685,79.1809939 L161.596693,37.6844053 L150.768383,37.942635 Z M187.51596,50.0612155 L183.726391,64.0255871 L191.810376,64.1076183 L187.51596,50.0612155 Z" id="Combined-Shape-Copy" fill="#FFFFFF" transform="translate(177.435376, 64.483357) rotate(17.000000) translate(-177.435376, -64.483357) "></path>
                <path d="M61.1987607,184.210338 L68.8219884,184.210338 C70.3310308,184.210338 71.4562912,184.273214 72.1978034,184.398968 C72.9393156,184.524721 73.602764,184.787065 74.1881683,185.186008 C74.7735727,185.58495 75.2614024,186.116142 75.651672,186.7796 C76.0419415,187.443059 76.2370734,188.186728 76.2370734,189.01063 C76.2370734,189.903914 75.9964108,190.723468 75.5150783,191.469316 C75.0337458,192.215165 74.3811381,192.774543 73.5572357,193.147467 C74.7193718,193.485701 75.6126421,194.062424 76.2370734,194.877654 C76.8615047,195.692884 77.1737157,196.651198 77.1737157,197.752625 C77.1737157,198.619891 76.9720795,199.463294 76.5688009,200.28286 C76.1655223,201.102427 75.6148168,201.757202 74.9166679,202.247207 C74.218519,202.737213 73.3577707,203.038583 72.3343971,203.151327 C71.6926204,203.220709 70.1445743,203.264071 67.6902123,203.281417 L61.1987607,203.281417 L61.1987607,184.210338 Z M65.0494013,187.384515 L65.0494013,191.794539 L67.573132,191.794539 C69.0735017,191.794539 70.0057984,191.772858 70.37005,191.729495 C71.029172,191.651441 71.5473555,191.423787 71.9246161,191.046526 C72.3018767,190.669266 72.4905041,190.172764 72.4905041,189.557005 C72.4905041,188.967264 72.3278943,188.488107 72.0026696,188.119519 C71.677445,187.750931 71.1939516,187.527614 70.5521749,187.44956 C70.170578,187.406197 69.0735033,187.384515 67.2609179,187.384515 L65.0494013,187.384515 Z M65.0494013,194.968716 L65.0494013,200.068213 L68.6138457,200.068213 C70.0014709,200.068213 70.8817324,200.029187 71.2546566,199.951133 C71.827052,199.847061 72.2932004,199.59339 72.6531157,199.190111 C73.0130309,198.786832 73.1929859,198.246968 73.1929859,197.5705 C73.1929859,196.998105 73.0542254,196.512443 72.7767004,196.113501 C72.4991754,195.714559 72.098071,195.424029 71.5733752,195.241904 C71.0486794,195.059778 69.9104102,194.968716 68.1585334,194.968716 L65.0494013,194.968716 Z M80.5170084,188.971604 C80.9506413,188.000266 81.5425413,187.128677 82.2927261,186.35681 C83.042911,185.584944 83.864633,185.012557 84.7579167,184.639633 C85.9460707,184.136619 87.31633,183.885115 88.8687357,183.885115 C91.6786767,183.885115 93.9270294,184.756704 95.6138613,186.499909 C97.3006931,188.243113 98.1440964,190.667084 98.1440964,193.771895 C98.1440964,196.850689 97.3071975,199.259483 95.6333746,200.998351 C93.9595518,202.737219 91.7220397,203.60664 88.9207714,203.60664 C86.0848124,203.60664 83.8299553,202.741555 82.1561325,201.01136 C80.4823096,199.281165 79.6454107,196.898388 79.6454107,193.862958 C79.6454107,191.920283 79.9359404,190.289847 80.5170084,188.971604 Z M85.1091575,198.643736 C86.1065131,199.758173 87.3727021,200.315383 88.9077625,200.315383 C90.4428228,200.315383 91.7025074,199.762509 92.686854,198.656745 C93.6712006,197.550981 94.1633666,195.892361 94.1633666,193.680833 C94.1633666,191.495323 93.6842094,189.864888 92.7258808,188.789479 C91.7675522,187.714069 90.4948588,187.176372 88.9077625,187.176372 C87.3206662,187.176372 86.0414684,187.720574 85.0701308,188.808992 C84.0987931,189.897411 83.6131316,191.538686 83.6131316,193.732869 C83.6131316,195.89236 84.1118019,197.5293 85.1091575,198.643736 Z M101.24022,188.971604 C101.673852,188.000266 102.265752,187.128677 103.015937,186.35681 C103.766122,185.584944 104.587844,185.012557 105.481128,184.639633 C106.669282,184.136619 108.039541,183.885115 109.591947,183.885115 C112.401888,183.885115 114.650241,184.756704 116.337072,186.499909 C118.023904,188.243113 118.867308,190.667084 118.867308,193.771895 C118.867308,196.850689 118.030409,199.259483 116.356586,200.998351 C114.682763,202.737219 112.445251,203.60664 109.643983,203.60664 C106.808024,203.60664 104.553167,202.741555 102.879344,201.01136 C101.205521,199.281165 100.368622,196.898388 100.368622,193.862958 C100.368622,191.920283 100.659152,190.289847 101.24022,188.971604 Z M105.832369,198.643736 C106.829724,199.758173 108.095913,200.315383 109.630974,200.315383 C111.166034,200.315383 112.425719,199.762509 113.410065,198.656745 C114.394412,197.550981 114.886578,195.892361 114.886578,193.680833 C114.886578,191.495323 114.407421,189.864888 113.449092,188.789479 C112.490763,187.714069 111.21807,187.176372 109.630974,187.176372 C108.043877,187.176372 106.76468,187.720574 105.793342,188.808992 C104.822004,189.897411 104.336343,191.538686 104.336343,193.732869 C104.336343,195.89236 104.835013,197.5293 105.832369,198.643736 Z M121.924404,203.281417 L121.924404,184.210338 L125.775045,184.210338 L125.775045,192.679146 L133.554379,184.210338 L138.73193,184.210338 L131.551006,191.638432 L139.122198,203.281417 L134.139781,203.281417 L128.897186,194.331279 L125.775045,197.518465 L125.775045,203.281417 L121.924404,203.281417 Z" id="BOOK" fill="#FFFFFF" transform="translate(100.160479, 193.745878) rotate(12.000000) translate(-100.160479, -193.745878) "></path>
                <text id="JS" transform="translate(113.020758, 135.671258) rotate(11.000000) translate(-113.020758, -135.671258) " font-family="Arial-BoldMT, Arial" font-size="90" font-weight="bold" fill="#FFFFFF">
                    <tspan x="57.5207585" y="166.671258">JS</tspan>
                </text>
                <polygon id="Path-4" fill="#C88206" points="0.75390625 205.999023 16.0253906 229.101563 201.427734 265.537109 247.507812 51.6152344 231.238281 48.8984375 187.195312 242.375"></polygon>
                <polygon id="Path-5" fill="#F3F3F3" points="12.5292969 208.599609 21.6855469 222.316406 195.775391 255.390625 238.642578 59.0800781 232.933594 40.2695312 186.867188 242.332031"></polygon>
            </g>
        </g>
    </g>
</svg>